Project 1
…
Tidying

The code for the tidying aspect can be found in the Joining section as I did them together. I pivoted_longer to make the data tidy. Originally, there was a column for each date the data was taken. Pivot longer allowed it to have a row for each county and within each county each date the data counted. Then I removed the day data, grouped by county and month, and then averaged the data by month within each county. This way we can see the average monthly statistic for each of the variables. I also tidied further down in order to access variables and work on different datasets for different purposes

Wrangling

Joined <- Joined %>% group_by(county, Month) %>% mutate(Uninfected = jan1_2020_pop_est - 
    month_total) %>% mutate(recovered = month_total - mean_month_active - 
    month_fatal)

Joined %>% group_by(county) %>% select(-month_total) %>% summarise_if(is.numeric, 
    list(Mean = mean), na.rm = T) %>% arrange(desc(mean_month_active_Mean)) %>% 
    filter(mean_month_active_Mean > median(mean_month_active_Mean))

## # A tibble: 126 x 6
##    county mean_month_acti… month_fatal_Mean jan1_2020_pop_e… Uninfected_Mean
##    <chr>             <dbl>            <dbl>            <dbl>           <dbl>
##  1 tarra…           31116.           58111           2063496        1880516 
##  2 harris           29237.          118426           4703708        4386180.
##  3 dallas           24022.           78940.          2647627        2424375 
##  4 el pa…           22550.           58513.           851888         735892.
##  5 montg…           17698.           10150.           609172         576218.
##  6 bexar            17684.           66834.          2006193        1862482 
##  7 denton           12356.           14206.           904005         860105.
##  8 fort …           11018.           13146            818912         773814.
##  9 galve…            4758.            7744.           341146         314287.
## 10 smith             4116.            9390.           232675         222839.
## # … with 116 more rows, and 1 more variable: recovered_Mean <dbl>

Joined %>% group_by(county) %>% select(-month_total) %>% summarise_if(is.numeric, 
    list(SD = sd), na.rm = T) %>% arrange(desc(mean_month_active_SD)) %>% 
    filter(mean_month_active_SD > median(mean_month_active_SD)) %>% 
    select(-jan1_2020_pop_est_SD)

## # A tibble: 126 x 5
##    county     mean_month_active_SD month_fatal_SD Uninfected_SD recovered_SD
##    <chr>                     <dbl>          <dbl>         <dbl>        <dbl>
##  1 tarrant                  16155.         18535.        37640.       33587.
##  2 el paso                  15646.         12500.        13120.       25995.
##  3 dallas                   12243.         23713.        36498.       28928.
##  4 harris                   11966.         31363.        58505.       43986.
##  5 bexar                     9346.         20190.        34372.       26062.
##  6 montgomery                5932.          3070.         7071.        2294.
##  7 webb                      2468.          4448.         7661.        5610.
##  8 ector                     2179.          1866.         1065.        1977.
##  9 denton                    2023.          4713.         9176.        6434.
## 10 fort bend                 1887.          3315.         9466.        6891.
## # … with 116 more rows

Joined %>% group_by(county) %>% select(-month_total) %>% summarise_if(is.numeric, 
    list(Var = var), na.rm = T) %>% arrange(desc(mean_month_active_Var)) %>% 
    filter(mean_month_active_Var > median(mean_month_active_Var)) %>% 
    select(-jan1_2020_pop_est_Var) %>% mutate_if(is.numeric, 
    round, 3)

## # A tibble: 126 x 5
##    county     mean_month_active_Var month_fatal_Var Uninfected_Var recovered_Var
##    <chr>                      <dbl>           <dbl>          <dbl>         <dbl>
##  1 tarrant               260994915.      343551822     1416772045.   1128117387.
##  2 el paso               244812024.      156249933.     172147194.    675725579.
##  3 dallas                149898818.      562297183     1332101181.    836805182.
##  4 harris                143192086.      983615461.    3422825494.   1934759917.
##  5 bexar                  87342437.      407642077.    1181406301.    679231950.
##  6 montgomery             35184133.        9426224.      50000548.      5261866.
##  7 webb                    6091913.       19786481.      58696316.     31477492.
##  8 ector                   4746353.        3482460.       1134430.      3909697.
##  9 denton                  4093389.       22210480.      84201935.     41395648.
## 10 fort bend               3561255.       10990918       89603163      47488799.
## # … with 116 more rows

Joined %>% group_by(county) %>% select(-month_total) %>% summarise_if(is.numeric, 
    list(IQR = IQR), na.rm = T) %>% arrange(desc(mean_month_active_IQR)) %>% 
    filter(mean_month_active_IQR > median(mean_month_active_IQR)) %>% 
    select(-jan1_2020_pop_est_IQR)

## # A tibble: 126 x 5
##    county     mean_month_active_IQR month_fatal_IQR Uninfected_IQR recovered_IQR
##    <chr>                      <dbl>           <dbl>          <dbl>         <dbl>
##  1 el paso                   22970.          16003.         14934.        30042.
##  2 dallas                    12701.          18520          34066.        34478.
##  3 tarrant                   11906.          12548.         34475         39418.
##  4 harris                    11720.          24086          58918         47318.
##  5 montgomery                 7469.           1980.          6927.         1493.
##  6 bexar                      6818.          14298.         36140.        29715.
##  7 denton                     3351.           2780.         10093.         5523.
##  8 galveston                  3054.           1305.          5359.         3324.
##  9 fort bend                  2818.           2858.          9986          7801.
## 10 lubbock                    2576.           5408.          2602.         2175.
## # … with 116 more rows
…
